<?xml version="1.0" encoding="utf-8"?>
<!-- Generator: Adobe Illustrator 16.0.0, SVG Export Plug-In . SVG Version: 6.00 Build 0)  -->
<!DOCTYPE svg PUBLIC "-//W3C//DTD SVG 1.1//EN" "http://www.w3.org/Graphics/SVG/1.1/DTD/svg11.dtd">
<svg version="1.1" id="Capa_1" xmlns="http://www.w3.org/2000/svg" xmlns:xlink="http://www.w3.org/1999/xlink" x="0px" y="0px"
	 width="457.682px" height="243.332px" viewBox="-160.5 278.5 457.682 243.332"
	 enable-background="new -160.5 278.5 457.682 243.332" xml:space="preserve">
<g>
	<g>
		<polygon fill="#FF0000" points="72.515,311.807 72.515,321.27 37.515,314.962 37.515,305.5 		"/>
		<polygon points="72.515,300.807 72.515,310.27 37.515,303.962 37.515,294.5 		"/>
		<polygon fill="#FF0000" points="72.515,289.807 72.515,299.27 37.515,292.962 37.515,283.5 		"/>
	</g>
	<g>
		<polygon points="-154.485,285.04 -154.485,294.5 -132.485,307.117 -132.485,297.654 		"/>
		<polygon fill="#FF0000" points="-132.485,297.654 -132.485,307.117 -154.485,319.731 -154.485,310.27 		"/>
		<polygon points="-118.485,319.731 -118.485,310.271 -140.485,297.654 -140.485,307.117 		"/>
		<polygon fill="#FF0000" points="-140.485,307.117 -140.485,297.654 -118.485,285.04 -118.485,294.5 		"/>
	</g>
	<g>
		<polygon points="-51.485,285.04 -51.485,294.5 -29.485,307.117 -29.485,297.654 		"/>
		<polygon fill="#FF0000" points="-29.485,297.654 -29.485,307.117 -51.485,319.731 -51.485,310.27 		"/>
	</g>
	<g>
		<polygon points="-77.485,319.731 -77.485,310.271 -99.485,297.654 -99.485,307.117 		"/>
		<polygon fill="#FF0000" points="-99.485,307.117 -99.485,297.654 -77.485,285.04 -77.485,294.5 		"/>
	</g>
	<g>
		<polygon points="3.787,294.885 13.25,294.885 15.052,284.885 5.59,284.885 		"/>
		<polygon fill="#FF0000" points="3.246,297.884 -0.718,319.885 8.744,319.885 12.709,297.884 		"/>
	</g>
	<g>
		<polygon points="168.86,291.5 159.399,291.5 146.784,313.5 156.245,313.5 		"/>
		<polygon fill="#FF0000" points="156.245,313.5 146.784,313.5 134.169,291.5 143.63,291.5 		"/>
	</g>
	<g>
		<polygon points="86.169,313.5 95.629,313.5 108.245,291.5 98.783,291.5 		"/>
		<polygon fill="#FF0000" points="98.783,291.5 108.245,291.5 120.86,313.5 111.399,313.5 		"/>
	</g>
</g>
<g>
	<path d="M192.953,297.872l-6.689-6.69l24.477-6.636l6.69,6.69L192.953,297.872z M181.749,313.536l6.69,6.691l24.477-6.639
		l-6.689-6.688L181.749,313.536z"/>
	<path fill="#FF0000" d="M211.84,311.858l1.24,1.787l-6.691,6.689l-12.932-18.617l-5.018,18.51l-6.69-6.691l5.591-20.623
		l-1.24-1.786l6.691-6.69l12.932,18.617l5.018-18.508l6.69,6.69L211.84,311.858z"/>
</g>
</svg>
