<?xml version="1.0" encoding="utf-8"?>
<!-- Generator: Adobe Illustrator 16.0.0, SVG Export Plug-In . SVG Version: 6.00 Build 0)  -->
<!DOCTYPE svg PUBLIC "-//W3C//DTD SVG 1.1//EN" "http://www.w3.org/Graphics/SVG/1.1/DTD/svg11.dtd">
<svg version="1.1" id="Capa_1" xmlns="http://www.w3.org/2000/svg" xmlns:xlink="http://www.w3.org/1999/xlink" x="0px" y="0px"
	 width="270px" height="150px" viewBox="0 0 270 150" enable-background="new 0 0 270 150" xml:space="preserve">
<g>
	<g>
		<path fill="#FFFFFF" d="M233.021,7.07l15.82,27.391c-4.914-1.953-10.242-3.094-15.859-3.094c-5.594,0-10.93,1.141-15.836,3.094
			L233.021,7.07z"/>
		<path fill="#FFFFFF" d="M232.998,142.93l-16.461-28.469c5.102,2.125,10.641,3.266,16.445,3.266c5.852,0,11.414-1.188,16.484-3.266
			L232.998,142.93z"/>
		<path d="M232.998,96.617c-12.156,0-22.086-9.828-22.086-22.031c0-12.25,9.93-22.109,22.086-22.109
			c12.172,0,22.094,9.859,22.094,22.109C255.092,86.789,245.17,96.617,232.998,96.617z"/>
	</g>
	<g>
		<g>
			<g>
				<path d="M79.234,40.308l-2.14,0.005c-4.615,0.015-8.572,2.763-10.373,6.703c-0.667,1.456-1.043,3.069-1.037,4.77l0.004,2.223
					l13.39,0.15L79.234,40.308z"/>
				<path d="M94.347,72.21l-0.029-11.006L94.304,57l-12.869-0.024l-0.001,0.017l-15.735,0.041L65.74,72.29
					c0.02,6.317,5.156,11.425,11.473,11.412l5.722-0.015C89.253,83.67,94.364,78.527,94.347,72.21z"/>
				<path d="M94.299,54.33l-0.007-2.619c-0.02-6.32-5.157-11.431-11.476-11.413l-0.973,0.001l-0.155,13.889L94.299,54.33z"/>
			</g>
		</g>
		<g>
			<path d="M105.597,125h-51.17c-1.988,0-3.6-1.615-3.6-3.604c0-1.993,1.611-3.604,3.6-3.604h51.17c1.989,0,3.606,1.611,3.606,3.604
				C109.203,123.385,107.586,125,105.597,125L105.597,125z"/>
			<path d="M129.797,25H30.233c-8.429,0-15.325,6.899-15.325,15.317V93.28c0,8.428,6.896,15.323,15.325,15.323h99.563
				c8.425,0,15.325-6.896,15.325-15.323V40.317C145.122,31.899,138.222,25,129.797,25z M80.012,103.331
				c-2.088,0-3.779-1.685-3.779-3.775c0-2.095,1.691-3.784,3.779-3.784s3.787,1.689,3.787,3.784
				C83.799,101.646,82.1,103.331,80.012,103.331z M137.914,90.297H22.119V40.317c0-4.476,3.639-8.109,8.114-8.109h99.563
				c4.472,0,8.117,3.634,8.117,8.109V90.297z"/>
		</g>
		<g>
			<g>
				<path fill="#FFFFFF" d="M114.935,65.82h-9.379l14.399,15.548l13.892-15.548h-8.321c0-18.884-20.946-23.188-20.946-23.188
					C114.026,47.977,114.935,55.57,114.935,65.82z"/>
			</g>
			<g>
				<path fill="#FFFFFF" d="M45.097,58.18h9.378L40.076,42.632L26.185,58.18h8.32c0,18.884,20.946,23.188,20.946,23.188
					C46.005,76.023,45.097,68.43,45.097,58.18z"/>
			</g>
		</g>
	</g>
</g>
</svg>
